{
  "project_info": {
    "project_number": "245098721665",
    "firebase_url": "https://travelfriend-1550227187690.firebaseio.com",
    "project_id": "travelfriend-1550227187690",
    "storage_bucket": "travelfriend-1550227187690.appspot.com"
  },
  "client": [
    {
      "client_info": {
        "mobilesdk_app_id": "1:245098721665:android:c248099428b30646",
        "android_client_info": {
          "package_name": "com.sanam.travelfriend"
        }
      },
      "oauth_client": [
        {
          "client_id": "245098721665-2aqji7h8uffm0g8lrsc05dites35m7k1.apps.googleusercontent.com",
          "client_type": 3
        }
      ],
      "api_key": [
        {
          "current_key": "AIzaSyCsvorq3H5VvRYuhKDQdbNHOY2fOkH3BvM"
        }
      ],
      "services": {
        "analytics_service": {
          "status": 1
        },
        "appinvite_service": {
          "status": 1,
          "other_platform_oauth_client": []
        },
        "ads_service": {
          "status": 2
        }
      }
    }
  ],
  "configuration_version": "1"
}